"population","1475930","2824693","12609898","9960403","1122927","17822931","1834640","2224442","7139667","1891227"
"CEU",2,1,1,2,2,2,2,2,1,2
"GIH",1,0,2,2,1,0,1,2,2,1
"CEU",2,1,2,2,2,2,2,1,2,2
"CEU",1,2,2,2,1,1,2,2,2,2
"CEU",2,0,2,2,2,1,2,2,1,2
"CEU",1,2,2,1,2,2,2,2,2,2
"CHB",0,1,0,0,0,0,0,1,1,0
"CEU",0,1,1,2,1,2,2,2,2,2
"CEU",2,2,1,2,2,2,2,1,2,2
"CEU",2,2,1,2,2,1,1,2,1,2
"CEU",2,1,2,2,2,1,2,2,2,2
"CHB",1,1,0,0,0,0,0,0,0,1
"CEU",1,2,2,2,2,2,2,2,1,2
"CEU",2,0,2,2,2,2,2,2,2,2
"CEU",2,1,2,2,0,2,2,2,2,2
"CEU",2,1,1,2,2,2,2,2,2,2
"CEU",1,2,2,2,2,2,2,2,2,2
"CEU",1,2,2,2,2,2,2,2,2,2
"CEU",2,1,2,2,2,2,2,1,2,2
"CEU",1,0,2,2,0,1,2,1,2,2
