AD	ABCA7	rs376450	T	C	C	1.23
AD	BIN1	rs744373	A	G	G	1.17
AD	CD2AP	rs9349407	G	C	C	1.12
AD	CD33	rs3865444	C	A	C	1.12
AD	CLU	rs11136000	C	T	C	1.14
AD	CR1	rs3818361	G	A	A	1.17
AD	MS4A4E	rs670139	G	T	T	1.08
AD	MS3A6A	rs610932	G	T	G	1.11
AD	PICALM	rs3851179	C	T	C	1.14
