insert into gitler_cancer_colorectal (rsid,gene,major,minor,risk,oddsratio,pvalue) values ('rs6691170','Intergenic','G','T','T','1.13','5.16 × 10−7');
insert into gitler_cancer_colorectal (rsid,gene,major,minor,risk,oddsratio,pvalue) values ('rs10936599','MYNN','C','T','C','1.07','0.011');
insert into gitler_cancer_colorectal (rsid,gene,major,minor,risk,oddsratio,pvalue) values ('rs16892766','EIF3H','A','C','C','1.28','8.92 × 10−9');
insert into gitler_cancer_colorectal (rsid,gene,major,minor,risk,oddsratio,pvalue) values ('rs6983267','c-MYC','G','T','G','1.16','2.62 × 10−10');
insert into gitler_cancer_colorectal (rsid,gene,major,minor,risk,oddsratio,pvalue) values ('rs10795668','Intergenic','G','A','A','1.14','3.77 × 10−7');
insert into gitler_cancer_colorectal (rsid,gene,major,minor,risk,oddsratio,pvalue) values ('rs3802842','C11orf93','C','A','C','1.17','3.86 × 10−9');
insert into gitler_cancer_colorectal (rsid,gene,major,minor,risk,oddsratio,pvalue) values ('rs11169552','Intergenic','C','T','C','1.12','5.82 × 10−5');
insert into gitler_cancer_colorectal (rsid,gene,major,minor,risk,oddsratio,pvalue) values ('rs4444235','MP4','T','C','C','1.09','1.84 × 10−4');
insert into gitler_cancer_colorectal (rsid,gene,major,minor,risk,oddsratio,pvalue) values ('rs4779584','GREM1/SCG5','C','T','T','1.2','3.61 × 10−10');
insert into gitler_cancer_colorectal (rsid,gene,major,minor,risk,oddsratio,pvalue) values ('rs9929218','CDH1','G','A','G','1.1','3.44 × 10−4');
insert into gitler_cancer_colorectal (rsid,gene,major,minor,risk,oddsratio,pvalue) values ('rs4939827','SMAD7','T','C','T','1.16','8.25 × 10−10');
insert into gitler_cancer_colorectal (rsid,gene,major,minor,risk,oddsratio,pvalue) values ('rs10411210','RHPN2','C','T','C','1.14','1.08 × 10−3');
insert into gitler_cancer_colorectal (rsid,gene,major,minor,risk,oddsratio,pvalue) values ('rs961253','Intergenic','C','A','A','1.14','2.47 × 10−7');
insert into gitler_cancer_colorectal (rsid,gene,major,minor,risk,oddsratio,pvalue) values ('rs4925386','LAMA5','C','T','C','1.11','5.82 × 10−5');
